%YAML 1.1
%TAG !u! tag:unity3d.com,2011:
--- !u!1 &2655818927204078719
GameObject:
  m_ObjectHideFlags: 0
  m_CorrespondingSourceObject: {fileID: 0}
  m_PrefabInstance: {fileID: 0}
  m_PrefabAsset: {fileID: 0}
  serializedVersion: 6
  m_Component:
  - component: {fileID: 2655818927204078718}
  - component: {fileID: 2655818927204078715}
  - component: {fileID: 2655818927204078716}
  - component: {fileID: 2655818927204078717}
  m_Layer: 5
  m_Name: Panel HUD
  m_TagString: Untagged
  m_Icon: {fileID: 0}
  m_NavMeshLayer: 0
  m_StaticEditorFlags: 0
  m_IsActive: 1
--- !u!224 &2655818927204078718
RectTransform:
  m_ObjectHideFlags: 0
  m_CorrespondingSourceObject: {fileID: 0}
  m_PrefabInstance: {fileID: 0}
  m_PrefabAsset: {fileID: 0}
  m_GameObject: {fileID: 2655818927204078719}
  m_LocalRotation: {x: 0, y: 0, z: 0, w: 1}
  m_LocalPosition: {x: 0, y: 0, z: 0}
  m_LocalScale: {x: 1, y: 1, z: 1}
  m_Children:
  - {fileID: 2655818927691199017}
  m_Father: {fileID: 0}
  m_RootOrder: 0
  m_LocalEulerAnglesHint: {x: 0, y: 0, z: 0}
  m_AnchorMin: {x: 0, y: 0}
  m_AnchorMax: {x: 1, y: 1}
  m_AnchoredPosition: {x: 0, y: 0}
  m_SizeDelta: {x: 0, y: 0}
  m_Pivot: {x: 0.5, y: 0.5}
--- !u!222 &2655818927204078715
CanvasRenderer:
  m_ObjectHideFlags: 0
  m_CorrespondingSourceObject: {fileID: 0}
  m_PrefabInstance: {fileID: 0}
  m_PrefabAsset: {fileID: 0}
  m_GameObject: {fileID: 2655818927204078719}
  m_CullTransparentMesh: 0
--- !u!114 &2655818927204078716
MonoBehaviour:
  m_ObjectHideFlags: 0
  m_CorrespondingSourceObject: {fileID: 0}
  m_PrefabInstance: {fileID: 0}
  m_PrefabAsset: {fileID: 0}
  m_GameObject: {fileID: 2655818927204078719}
  m_Enabled: 1
  m_EditorHideFlags: 0
  m_Script: {fileID: 11500000, guid: fe87c0e1cc204ed48ad3b37840f39efc, type: 3}
  m_Name: 
  m_EditorClassIdentifier: 
  m_Material: {fileID: 0}
  m_Color: {r: 1, g: 1, b: 1, a: 0.392}
  m_RaycastTarget: 1
  m_OnCullStateChanged:
    m_PersistentCalls:
      m_Calls: []
  m_Sprite: {fileID: 10907, guid: 0000000000000000f000000000000000, type: 0}
  m_Type: 1
  m_PreserveAspect: 0
  m_FillCenter: 1
  m_FillMethod: 4
  m_FillAmount: 1
  m_FillClockwise: 1
  m_FillOrigin: 0
  m_UseSpriteMesh: 0
  m_PixelsPerUnitMultiplier: 1
--- !u!114 &2655818927204078717
MonoBehaviour:
  m_ObjectHideFlags: 0
  m_CorrespondingSourceObject: {fileID: 0}
  m_PrefabInstance: {fileID: 0}
  m_PrefabAsset: {fileID: 0}
  m_GameObject: {fileID: 2655818927204078719}
  m_Enabled: 1
  m_EditorHideFlags: 0
  m_Script: {fileID: 11500000, guid: 39f1203960493d4438e07c9c6050f4d7, type: 3}
  m_Name: 
  m_EditorClassIdentifier: 
  questionMark: {fileID: 2655818927178723685}
  cycle: 1
  timefadeOut: 1
--- !u!1001 &9162013696873110029
PrefabInstance:
  m_ObjectHideFlags: 0
  serializedVersion: 2
  m_Modification:
    m_TransformParent: {fileID: 2655818927204078718}
    m_Modifications:
    - target: {fileID: 6628559592469588004, guid: 89520bee456e05e49b9cb633b28bc9d8,
        type: 3}
      propertyPath: m_LocalPosition.x
      value: 0
      objectReference: {fileID: 0}
    - target: {fileID: 6628559592469588004, guid: 89520bee456e05e49b9cb633b28bc9d8,
        type: 3}
      propertyPath: m_LocalPosition.y
      value: 0
      objectReference: {fileID: 0}
    - target: {fileID: 6628559592469588004, guid: 89520bee456e05e49b9cb633b28bc9d8,
        type: 3}
      propertyPath: m_LocalPosition.z
      value: 0
      objectReference: {fileID: 0}
    - target: {fileID: 6628559592469588004, guid: 89520bee456e05e49b9cb633b28bc9d8,
        type: 3}
      propertyPath: m_LocalRotation.x
      value: -0
      objectReference: {fileID: 0}
    - target: {fileID: 6628559592469588004, guid: 89520bee456e05e49b9cb633b28bc9d8,
        type: 3}
      propertyPath: m_LocalRotation.y
      value: -0
      objectReference: {fileID: 0}
    - target: {fileID: 6628559592469588004, guid: 89520bee456e05e49b9cb633b28bc9d8,
        type: 3}
      propertyPath: m_LocalRotation.z
      value: -0
      objectReference: {fileID: 0}
    - target: {fileID: 6628559592469588004, guid: 89520bee456e05e49b9cb633b28bc9d8,
        type: 3}
      propertyPath: m_LocalRotation.w
      value: 1
      objectReference: {fileID: 0}
    - target: {fileID: 6628559592469588004, guid: 89520bee456e05e49b9cb633b28bc9d8,
        type: 3}
      propertyPath: m_RootOrder
      value: 0
      objectReference: {fileID: 0}
    - target: {fileID: 6628559592469588004, guid: 89520bee456e05e49b9cb633b28bc9d8,
        type: 3}
      propertyPath: m_LocalEulerAnglesHint.x
      value: 0
      objectReference: {fileID: 0}
    - target: {fileID: 6628559592469588004, guid: 89520bee456e05e49b9cb633b28bc9d8,
        type: 3}
      propertyPath: m_LocalEulerAnglesHint.y
      value: 0
      objectReference: {fileID: 0}
    - target: {fileID: 6628559592469588004, guid: 89520bee456e05e49b9cb633b28bc9d8,
        type: 3}
      propertyPath: m_LocalEulerAnglesHint.z
      value: 0
      objectReference: {fileID: 0}
    - target: {fileID: 6628559592469588004, guid: 89520bee456e05e49b9cb633b28bc9d8,
        type: 3}
      propertyPath: m_AnchoredPosition.x
      value: -35
      objectReference: {fileID: 0}
    - target: {fileID: 6628559592469588004, guid: 89520bee456e05e49b9cb633b28bc9d8,
        type: 3}
      propertyPath: m_AnchoredPosition.y
      value: -45
      objectReference: {fileID: 0}
    - target: {fileID: 6628559592469588004, guid: 89520bee456e05e49b9cb633b28bc9d8,
        type: 3}
      propertyPath: m_SizeDelta.x
      value: 193.29999
      objectReference: {fileID: 0}
    - target: {fileID: 6628559592469588004, guid: 89520bee456e05e49b9cb633b28bc9d8,
        type: 3}
      propertyPath: m_SizeDelta.y
      value: 131.70001
      objectReference: {fileID: 0}
    - target: {fileID: 6628559592469588004, guid: 89520bee456e05e49b9cb633b28bc9d8,
        type: 3}
      propertyPath: m_AnchorMin.x
      value: 1
      objectReference: {fileID: 0}
    - target: {fileID: 6628559592469588004, guid: 89520bee456e05e49b9cb633b28bc9d8,
        type: 3}
      propertyPath: m_AnchorMin.y
      value: 1
      objectReference: {fileID: 0}
    - target: {fileID: 6628559592469588004, guid: 89520bee456e05e49b9cb633b28bc9d8,
        type: 3}
      propertyPath: m_AnchorMax.x
      value: 1
      objectReference: {fileID: 0}
    - target: {fileID: 6628559592469588004, guid: 89520bee456e05e49b9cb633b28bc9d8,
        type: 3}
      propertyPath: m_AnchorMax.y
      value: 1
      objectReference: {fileID: 0}
    - target: {fileID: 6628559592469588004, guid: 89520bee456e05e49b9cb633b28bc9d8,
        type: 3}
      propertyPath: m_Pivot.x
      value: 0.5
      objectReference: {fileID: 0}
    - target: {fileID: 6628559592469588004, guid: 89520bee456e05e49b9cb633b28bc9d8,
        type: 3}
      propertyPath: m_Pivot.y
      value: 0.5
      objectReference: {fileID: 0}
    - target: {fileID: 6628559592469588007, guid: 89520bee456e05e49b9cb633b28bc9d8,
        type: 3}
      propertyPath: m_Name
      value: Zaino HUD
      objectReference: {fileID: 0}
    m_RemovedComponents: []
  m_SourcePrefab: {fileID: 100100000, guid: 89520bee456e05e49b9cb633b28bc9d8, type: 3}
--- !u!224 &2655818927691199017 stripped
RectTransform:
  m_CorrespondingSourceObject: {fileID: 6628559592469588004, guid: 89520bee456e05e49b9cb633b28bc9d8,
    type: 3}
  m_PrefabInstance: {fileID: 9162013696873110029}
  m_PrefabAsset: {fileID: 0}
--- !u!114 &2655818927178723685 stripped
MonoBehaviour:
  m_CorrespondingSourceObject: {fileID: 6628559590887631720, guid: 89520bee456e05e49b9cb633b28bc9d8,
    type: 3}
  m_PrefabInstance: {fileID: 9162013696873110029}
  m_PrefabAsset: {fileID: 0}
  m_GameObject: {fileID: 0}
  m_Enabled: 1
  m_EditorHideFlags: 0
  m_Script: {fileID: 11500000, guid: fe87c0e1cc204ed48ad3b37840f39efc, type: 3}
  m_Name: 
  m_EditorClassIdentifier: 
