%YAML 1.1
%TAG !u! tag:unity3d.com,2011:
--- !u!114 &11400000
MonoBehaviour:
  m_ObjectHideFlags: 0
  m_CorrespondingSourceObject: {fileID: 0}
  m_PrefabInstance: {fileID: 0}
  m_PrefabAsset: {fileID: 0}
  m_GameObject: {fileID: 0}
  m_Enabled: 1
  m_EditorHideFlags: 0
  m_Script: {fileID: 11500000, guid: 0bd42d723b2f6664faee4f8efbc4a2bc, type: 3}
  m_Name: NoteData-10
  m_EditorClassIdentifier: 
  isEnable: 0
  titolo: Nota 10
  testo: "Cosa sta succedendo al mio cervello? Nel giro di qualche minuto passo dallo
    sconforto, alla fiducia, dalla depressione a una strana sensazione di pace e
    calma. Sto per morire qua sotto, perch\xE9 cazzo mi sento calmo?! Forse \xE8
    un bene, mi aiuta ad andare avanti, non lo so non ci capisco pi\xF9 niente. Sembra
    tutto uguale qua sotto, se non fosse per ia mappa che sto tracciando non saprei
    neanche da dove sono gia' passato."
