%YAML 1.1
%TAG !u! tag:unity3d.com,2011:
--- !u!114 &11400000
MonoBehaviour:
  m_ObjectHideFlags: 0
  m_CorrespondingSourceObject: {fileID: 0}
  m_PrefabInstance: {fileID: 0}
  m_PrefabAsset: {fileID: 0}
  m_GameObject: {fileID: 0}
  m_Enabled: 1
  m_EditorHideFlags: 0
  m_Script: {fileID: 11500000, guid: 0bd42d723b2f6664faee4f8efbc4a2bc, type: 3}
  m_Name: NoteData-02
  m_EditorClassIdentifier: 
  isEnable: 0
  titolo: Nota 2
  testo: "Finalmente un po\u2019 di luce! Non ne posso pi\xF9 di tutta quest\u2019oscurit\xE0,
    ogni volta che sento anche un piccolo suono mi spavento a morte. Sono un ingegnere
    minerario, di solito le ispezioni le faccio in mezzo ai minatori a lavoro, alle
    chiacchiere e alle LUCI FUNZIONANTI...adesso invece mi sembra di essere stato
    sepolto vivo."
