%YAML 1.1
%TAG !u! tag:unity3d.com,2011:
--- !u!114 &11400000
MonoBehaviour:
  m_ObjectHideFlags: 0
  m_CorrespondingSourceObject: {fileID: 0}
  m_PrefabInstance: {fileID: 0}
  m_PrefabAsset: {fileID: 0}
  m_GameObject: {fileID: 0}
  m_Enabled: 1
  m_EditorHideFlags: 0
  m_Script: {fileID: 11500000, guid: 1ceb6fe778888e9449b1bff7930e8afd, type: 3}
  m_Name: Mappa-03
  m_EditorClassIdentifier: 
  isEnable: 0
  imageMappa: {fileID: 21300000, guid: f5a9ffb5cfdb6814d8e0ab175c7f71dd, type: 3}
