# This file uses centimeters as units for non-parametric coordinates.

mtllib MDL_ScalaPioli.mtl
g default
v 33.246521 38.479771 6.233734
v 33.246521 23.087864 6.233734
v 33.246521 23.087864 -6.233734
v 33.246521 38.479771 -6.233734
v -33.246521 92.351486 6.233734
v -24.934891 92.351486 6.233734
v -24.934891 107.743362 6.233734
v -33.246521 107.743362 6.233734
v 24.934891 38.479771 6.233734
v 33.246521 46.175720 6.233734
v 24.934891 46.175720 6.233734
v -24.934891 84.655533 -6.233734
v -33.246521 84.655533 -6.233734
v -33.246521 92.351486 -6.233734
v -24.934891 92.351486 -6.233734
v 24.934891 23.087864 -6.233734
v 24.934891 38.479771 -6.233734
v -33.246521 107.743362 -6.233734
v 24.934891 61.567627 6.233734
v 24.934891 69.263603 6.233734
v -24.934891 84.655533 6.233734
v 24.934891 61.567627 -6.233734
v -24.934891 107.743362 -6.233734
v 33.246521 46.175720 -6.233734
v -24.934891 115.439392 6.233734
v -33.246521 115.439392 6.233734
v 33.246521 61.567627 6.233734
v 24.934891 46.175720 -6.233734
v -33.246521 115.439392 -6.233734
v 24.934891 69.263603 -6.233734
v 33.246521 61.567627 -6.233734
v -24.934891 130.831223 6.233734
v -33.246521 130.831223 6.233734
v 33.246521 69.263603 6.233734
v -24.934891 115.439392 -6.233734
v -33.246521 130.831223 -6.233734
v 24.934891 84.655510 -6.233734
v 24.934891 84.655510 6.233734
v -24.934891 130.831223 -6.233734
v 33.246521 69.263603 -6.233734
v -24.934891 138.527252 6.233734
v -33.246521 138.527252 6.233734
v 33.246521 84.655510 6.233734
v -33.246521 138.527252 -6.233734
v 24.934891 92.351456 6.233734
v 24.934891 92.351456 -6.233734
v 33.246521 84.655510 -6.233734
v -24.934891 153.919174 6.233734
v -33.246521 153.919174 6.233734
v 33.246521 92.351456 6.233734
v -24.934891 138.527252 -6.233734
v -33.246521 153.919174 -6.233734
v 24.934891 107.743362 6.233734
v 24.934891 115.439331 6.233734
v 24.934891 107.743362 -6.233734
v -24.934891 153.919174 -6.233734
v 33.246521 92.351456 -6.233734
v -24.934891 161.615021 6.233734
v -33.246521 161.615021 6.233734
v 33.246521 107.743362 6.233734
v -33.246521 161.615021 -6.233734
v 24.934891 115.439331 -6.233734
v 33.246521 107.743362 -6.233734
v -24.934891 177.006943 6.233734
v -33.246521 177.006943 6.233734
v 33.246521 115.439331 6.233734
v -24.934891 161.615021 -6.233734
v -33.246521 177.006943 -6.233734
v 24.934891 130.831223 6.233734
v 24.934891 138.527206 6.233734
v 24.934891 130.831223 -6.233734
v -24.934891 177.006943 -6.233734
v 33.246521 115.439331 -6.233734
v -24.934891 184.702911 6.233734
v -33.246521 184.702911 6.233734
v 33.246521 130.831223 6.233734
v -33.246521 184.702911 -6.233734
v 24.934891 138.527206 -6.233734
v 33.246521 130.831223 -6.233734
v 33.246521 138.527206 6.233734
v -24.934891 184.702911 -6.233734
v -24.934891 207.790771 6.233734
v -33.246521 207.790771 6.233734
v -33.246521 207.790771 -6.233734
v 24.934891 153.919113 -6.233734
v 24.934891 153.919113 6.233734
v 33.246521 138.527206 -6.233734
v 33.246521 153.919113 6.233734
v -24.934891 207.790771 -6.233734
v 24.934891 161.615021 6.233734
v 24.934891 161.615021 -6.233734
v 33.246521 153.919113 -6.233734
v 33.246521 161.615021 6.233734
v 24.934891 177.006943 6.233734
v 24.934891 184.702911 6.233734
v 24.934891 177.006943 -6.233734
v 33.246521 161.615021 -6.233734
v 33.246521 177.006943 6.233734
v 24.934891 184.702911 -6.233734
v 33.246521 177.006943 -6.233734
v 33.246521 184.702911 6.233734
v 33.246521 184.702911 -6.233734
v 33.246521 207.790771 6.233734
v 24.934891 207.790771 6.233734
v 24.934891 207.790771 -6.233734
v 33.246521 207.790771 -6.233734
v -24.934891 61.567627 -6.233734
v -24.934891 69.263626 -6.233734
v -24.934891 69.263626 6.233734
v 24.934891 23.087864 6.233734
v -33.246521 84.655533 6.233734
v 33.246521 15.391907 -6.233734
v 24.934891 15.391907 -6.233734
v -33.246521 69.263626 -6.233734
v 33.246521 15.391907 6.233734
v -24.934891 61.567627 6.233734
v -33.246521 69.263626 6.233734
v 33.246521 0.000000 -6.233734
v 24.934891 0.000000 -6.233734
v -33.246521 61.567627 -6.233734
v 24.934891 15.391907 6.233734
v 33.246521 0.000000 6.233734
v -24.934891 38.479771 -6.233734
v -24.934891 46.175720 -6.233734
v -24.934891 46.175720 6.233734
v 24.934891 0.000000 6.233734
v -33.246521 61.567627 6.233734
v -33.246521 46.175720 -6.233734
v -24.934891 38.479771 6.233734
v -33.246521 46.175720 6.233734
v -33.246521 38.479771 -6.233734
v -24.934891 15.391907 -6.233734
v -24.934891 23.087864 -6.233734
v -24.934891 23.087864 6.233734
v -33.246521 38.479771 6.233734
v -33.246521 23.087864 -6.233734
v -24.934891 15.391907 6.233734
v -33.246521 23.087864 6.233734
v -33.246521 15.391907 -6.233734
v -33.246521 15.391907 6.233734
v -24.934891 0.000000 -6.233734
v -33.246521 0.000000 -6.233734
v -24.934891 0.000000 6.233734
v -33.246521 0.000000 6.233734
v 33.246521 23.087864 0.000000
v 33.246521 15.391907 0.000000
v 33.246521 0.000000 0.000000
v 24.934893 0.000000 0.000000
v 24.934893 15.391907 0.000000
v -24.934893 15.391907 0.000000
v -24.934893 0.000000 0.000000
v -33.246521 0.000000 0.000000
v -33.246521 15.391907 0.000000
v -33.246521 23.087864 0.000000
v -33.246521 38.479771 0.000000
v -33.246521 46.175720 0.000000
v -33.246521 61.567627 0.000000
v -33.246521 69.263626 0.000000
v -33.246521 84.655533 0.000000
v -33.246521 92.351486 0.000000
v -33.246521 107.743362 0.000000
v -33.246521 115.439392 0.000000
v -33.246521 130.831223 0.000000
v -33.246521 138.527252 0.000000
v -33.246521 153.919174 0.000000
v -33.246521 161.615021 0.000000
v -33.246521 177.006943 0.000000
v -33.246521 184.702911 0.000000
v -33.246521 207.790771 0.000000
v -24.934893 207.790771 0.000000
v -24.934893 184.702911 0.000000
v 24.934893 184.702911 0.000000
v 24.934893 207.790771 0.000000
v 33.246521 207.790771 0.000000
v 33.246521 184.702911 0.000000
v 33.246521 177.006943 0.000000
v 33.246521 161.615021 0.000000
v 33.246521 153.919113 0.000000
v 33.246521 138.527206 0.000000
v 33.246521 130.831223 0.000000
v 33.246521 115.439331 0.000000
v 33.246521 107.743362 0.000000
v 33.246521 92.351456 0.000000
v 33.246521 84.655510 0.000000
v 33.246521 69.263603 0.000000
v 33.246521 61.567627 0.000000
v 33.246521 46.175720 0.000000
v 33.246521 38.479771 0.000000
v 24.934893 23.087864 0.000000
v -24.934893 23.087864 0.000000
v -24.934893 38.479771 0.000000
v 24.934893 38.479771 0.000000
v 24.934893 61.567627 -1.246735
v 24.934893 46.175720 -1.246735
v -24.934893 46.175720 -1.246735
v -24.934893 61.567627 -1.246735
v -24.934893 84.655533 1.246735
v -24.934893 69.263626 1.246735
v 24.934893 69.263603 1.246735
v 24.934893 84.655510 1.246735
v -24.934893 92.351486 1.246735
v -24.934893 107.743362 1.246735
v 24.934893 107.743362 1.246735
v 24.934893 92.351471 1.246735
v -24.934893 115.439392 0.000000
v -24.934893 130.831223 0.000000
v 24.934893 130.831223 0.000000
v 24.934893 115.439331 0.000000
v -24.934893 138.527267 -1.246735
v -24.934893 153.919189 -1.246735
v 24.934893 153.919113 -1.246735
v 24.934893 138.527206 -1.246735
v -24.934893 161.615021 0.044434
v -24.934893 177.006943 0.044434
v 24.934891 177.006943 0.044434
v 24.934891 161.615021 0.044434
vt 0.697506 0.424281
vt 0.695897 0.401116
vt 0.704784 0.398850
vt 0.706699 0.423908
vt 0.964474 0.542989
vt 0.952355 0.543597
vt 0.952361 0.515549
vt 0.964508 0.517127
vt 0.881032 0.637133
vt 0.869101 0.636788
vt 0.868848 0.624411
vt 0.880661 0.626524
vt 0.792808 0.504506
vt 0.805149 0.503216
vt 0.804628 0.516270
vt 0.792511 0.515215
vt 0.716477 0.394035
vt 0.718274 0.423896
vt 0.813838 0.516407
vt 0.813335 0.544108
vt 0.804197 0.544329
vt 0.879558 0.596285
vt 0.879195 0.585675
vt 0.953860 0.582003
vt 0.953959 0.592519
vt 0.724600 0.496701
vt 0.785731 0.498754
vt 0.717100 0.503532
vt 0.949565 0.599900
vt 0.885483 0.602252
vt 0.948443 0.539243
vt 0.949154 0.520660
vt 0.697598 0.436033
vt 0.706690 0.435963
vt 0.953017 0.505132
vt 0.965264 0.504795
vt 0.867532 0.597200
vt 0.791904 0.545712
vt 0.718779 0.434639
vt 0.812820 0.557310
vt 0.803627 0.557192
vt 0.877643 0.546512
vt 0.952707 0.554066
vt 0.878050 0.557259
vt 0.885520 0.620354
vt 0.880693 0.541213
vt 0.787061 0.480352
vt 0.723943 0.478954
vt 0.718265 0.473266
vt 0.793525 0.473722
vt 0.718391 0.462721
vt 0.793678 0.462735
vt 0.697222 0.461315
vt 0.706395 0.461872
vt 0.953565 0.475725
vt 0.965531 0.478012
vt 0.867122 0.584460
vt 0.791582 0.556389
vt 0.812134 0.584152
vt 0.802979 0.584391
vt 0.881140 0.522123
vt 0.877362 0.517551
vt 0.716733 0.514177
vt 0.948066 0.499992
vt 0.949618 0.481957
vt 0.696837 0.473954
vt 0.705953 0.474357
vt 0.953207 0.465124
vt 0.964895 0.464639
vt 0.866060 0.557636
vt 0.790713 0.585911
vt 0.811678 0.596787
vt 0.802545 0.596912
vt 0.881560 0.500560
vt 0.877655 0.506854
vt 0.695944 0.500961
vt 0.705131 0.501848
vt 0.952963 0.434741
vt 0.964468 0.436993
vt 0.865731 0.544864
vt 0.790533 0.596617
vt 0.811369 0.622492
vt 0.802275 0.623171
vt 0.883068 0.482374
vt 0.878236 0.477110
vt 0.947429 0.459018
vt 0.947984 0.440834
vt 0.695405 0.514224
vt 0.704493 0.514750
vt 0.952643 0.424123
vt 0.964371 0.424558
vt 0.865416 0.517672
vt 0.790270 0.624985
vt 0.811076 0.634401
vt 0.802156 0.635423
vt 0.883339 0.459442
vt 0.878641 0.466664
vt 0.715749 0.555335
vt 0.716106 0.544621
vt 0.694757 0.541892
vt 0.703972 0.542740
vt 0.952727 0.394323
vt 0.964338 0.398971
vt 0.865830 0.504814
vt 0.790686 0.635887
vt 0.812651 0.657902
vt 0.803682 0.660782
vt 0.878199 0.435664
vt 0.878050 0.424984
vt 0.884812 0.442075
vt 0.947729 0.418106
vt 0.948253 0.399570
vt 0.694371 0.555317
vt 0.703473 0.555730
vt 0.954073 0.383376
vt 0.966268 0.388435
vt 0.866279 0.477442
vt 0.791949 0.666034
vt 0.814770 0.667033
vt 0.806353 0.671254
vt 0.882516 0.419589
vt 0.715571 0.635988
vt 0.715508 0.624993
vt 0.715285 0.595954
vt 0.715456 0.585072
vt 0.694095 0.582828
vt 0.703304 0.583473
vt 0.866831 0.464749
vt 0.794448 0.677420
vt 0.973429 0.354265
vt 0.983131 0.360357
vt 0.876934 0.394676
vt 0.876343 0.382999
vt 0.833725 0.693065
vt 0.826415 0.698147
vt 0.882281 0.400574
vt 0.693992 0.596112
vt 0.703075 0.596373
vt 0.866456 0.437194
vt 0.809946 0.710999
vt 0.791199 0.685620
vt 0.816726 0.705042
vt 0.717023 0.686430
vt 0.713301 0.677783
vt 0.714939 0.666596
vt 0.831922 0.705397
vt 0.822169 0.712507
vt 0.694395 0.622731
vt 0.703554 0.623351
vt 0.866560 0.424668
vt 0.694534 0.635202
vt 0.703492 0.635876
vt 0.865761 0.398643
vt 0.694077 0.659775
vt 0.703083 0.662034
vt 0.864620 0.387923
vt 0.692118 0.669268
vt 0.700762 0.672847
vt 0.845139 0.361792
vt 0.854889 0.354845
vt 0.699609 0.712224
vt 0.692915 0.707140
vt 0.675333 0.696577
vt 0.683316 0.700909
vt 0.688125 0.714953
vt 0.678167 0.708513
vt 0.792993 0.422308
vt 0.793307 0.433433
vt 0.948951 0.617360
vt 0.955667 0.623623
vt 0.885738 0.642693
vt 0.885366 0.661337
vt 0.881085 0.666755
vt 0.814288 0.502952
vt 0.701824 0.388539
vt 0.713829 0.382709
vt 0.805502 0.474903
vt 0.869316 0.662236
vt 0.964726 0.555222
vt 0.693240 0.392158
vt 0.951966 0.640829
vt 0.955600 0.634297
vt 0.814685 0.475016
vt 0.689042 0.370118
vt 0.698835 0.364050
vt 0.805817 0.461833
vt 0.879964 0.677719
vt 0.867326 0.672788
vt 0.965772 0.581399
vt 0.681516 0.374491
vt 0.793311 0.380015
vt 0.792424 0.391369
vt 0.952128 0.659480
vt 0.957742 0.665133
vt 0.704573 0.358610
vt 0.716436 0.374082
vt 0.814908 0.461545
vt 0.805255 0.434400
vt 0.866086 0.697214
vt 0.856634 0.691195
vt 0.965809 0.593970
vt 0.683870 0.362654
vt 0.693875 0.356223
vt 0.789328 0.371377
vt 0.958716 0.676670
vt 0.814414 0.434439
vt 0.805062 0.421651
vt 0.967304 0.621596
vt 0.814196 0.421532
vt 0.804500 0.395053
vt 0.967098 0.634246
vt 0.813538 0.396498
vt 0.806223 0.384038
vt 0.968980 0.660358
vt 0.815350 0.386519
vt 0.805963 0.359223
vt 0.815804 0.364389
vt 0.970666 0.671164
vt 0.799553 0.354475
vt 0.823964 0.367505
vt 0.983633 0.688630
vt 0.973776 0.695118
vt 0.809930 0.350960
vt 0.820304 0.356379
vt 0.858590 0.669541
vt 0.860233 0.660412
vt 0.848574 0.688689
vt 0.861773 0.704479
vt 0.852252 0.699604
vt 0.882567 0.686159
vt 0.872313 0.701598
vt 0.955239 0.685201
vt 0.968434 0.701616
vt 0.988717 0.695253
vt 0.980160 0.702307
vt 0.979324 0.667396
vt 0.990451 0.683510
vt 0.977508 0.658418
vt 0.976177 0.633779
vt 0.976156 0.621239
vt 0.974898 0.594040
vt 0.974711 0.581441
vt 0.973778 0.555355
vt 0.973462 0.543215
vt 0.973625 0.517595
vt 0.974600 0.505095
vt 0.973763 0.477200
vt 0.973358 0.463644
vt 0.975321 0.474394
vt 0.973472 0.437343
vt 0.973169 0.425131
vt 0.973377 0.400839
vt 0.974782 0.391737
vt 0.991223 0.363806
vt 0.977563 0.346997
vt 0.987234 0.351716
vt 0.951409 0.375340
vt 0.965621 0.349707
vt 0.880387 0.374763
vt 0.861039 0.348846
vt 0.839871 0.355445
vt 0.848016 0.348002
vt 0.856410 0.391392
vt 0.838194 0.367836
vt 0.857226 0.400176
vt 0.857513 0.424761
vt 0.857582 0.437211
vt 0.857758 0.464153
vt 0.857369 0.476860
vt 0.856810 0.504039
vt 0.856473 0.517108
vt 0.856713 0.544396
vt 0.857060 0.557399
vt 0.858083 0.584290
vt 0.858572 0.597127
vt 0.859802 0.624047
vt 0.860248 0.636163
vt 0.787182 0.397404
vt 0.721738 0.398949
vt 0.786791 0.416278
vt 0.723619 0.418291
vt 0.722572 0.439020
vt 0.722978 0.458319
vt 0.789267 0.438425
vt 0.788853 0.457744
vt 0.949663 0.577325
vt 0.948973 0.558475
vt 0.882821 0.581145
vt 0.882177 0.562070
vt 0.784797 0.538606
vt 0.786477 0.520798
vt 0.723442 0.539225
vt 0.722910 0.520966
vt 0.784971 0.579783
vt 0.786564 0.561452
vt 0.721407 0.580124
vt 0.720894 0.561265
vt 0.785816 0.620534
vt 0.786634 0.601086
vt 0.720235 0.620064
vt 0.719484 0.600875
vt 0.785619 0.661131
vt 0.785716 0.642052
vt 0.721183 0.660492
vt 0.720349 0.641477
vn 1.000000 0.000000 0.000000
vn 1.000000 0.000000 0.000000
vn 1.000000 0.000000 0.000000
vn 1.000000 0.000000 0.000000
vn -0.000000 0.000000 1.000000
vn -0.000000 0.000000 1.000000
vn -0.000000 0.000000 1.000000
vn -0.000000 0.000000 1.000000
vn -0.000000 0.000000 1.000000
vn -0.000000 0.000000 1.000000
vn -0.000000 0.000000 1.000000
vn -0.000000 0.000000 1.000000
vn 0.000000 0.000000 -1.000000
vn 0.000000 0.000000 -1.000000
vn 0.000000 0.000000 -1.000000
vn 0.000000 0.000000 -1.000000
vn 0.000000 0.000000 -1.000000
vn 0.000000 0.000000 -1.000000
vn 0.000000 0.000000 -1.000000
vn 0.000000 0.000000 -1.000000
vn -1.000000 0.000000 -0.000000
vn -1.000000 0.000000 -0.000000
vn -1.000000 0.000000 -0.000000
vn -1.000000 0.000000 -0.000000
vn -0.000000 0.000000 1.000000
vn -0.000000 0.000000 1.000000
vn -0.000000 0.000000 1.000000
vn -0.000000 0.000000 1.000000
vn -0.000001 -1.000000 -0.000000
vn -0.000001 -1.000000 -0.000000
vn -0.000001 -1.000000 -0.000000
vn -0.000001 -1.000000 -0.000000
vn 0.000000 -1.000000 0.000000
vn 0.000000 -1.000000 0.000000
vn 0.000000 -1.000000 0.000000
vn 0.000000 -1.000000 0.000000
vn 1.000000 0.000000 0.000000
vn 1.000000 0.000000 0.000000
vn 1.000000 0.000000 0.000000
vn 1.000000 0.000000 0.000000
vn 1.000000 0.000000 0.000000
vn 1.000000 0.000000 0.000000
vn 1.000000 0.000000 0.000000
vn 1.000000 0.000000 0.000000
vn -0.000000 0.000000 1.000000
vn -0.000000 0.000000 1.000000
vn -0.000000 0.000000 1.000000
vn -0.000000 0.000000 1.000000
vn -0.000000 0.000000 1.000000
vn -0.000000 0.000000 1.000000
vn -0.000000 0.000000 1.000000
vn -0.000000 0.000000 1.000000
vn 0.000000 0.000000 -1.000000
vn 0.000000 0.000000 -1.000000
vn 0.000000 0.000000 -1.000000
vn 0.000000 0.000000 -1.000000
vn 0.000000 0.000000 -1.000000
vn 0.000000 0.000000 -1.000000
vn 0.000000 0.000000 -1.000000
vn 0.000000 0.000000 -1.000000
vn -1.000000 0.000000 -0.000000
vn -1.000000 0.000000 -0.000000
vn -1.000000 0.000000 -0.000000
vn -1.000000 0.000000 -0.000000
vn -0.000000 0.000000 1.000000
vn -0.000000 0.000000 1.000000
vn -0.000000 0.000000 1.000000
vn -0.000000 0.000000 1.000000
vn -1.000000 0.000000 -0.000000
vn -1.000000 0.000000 -0.000000
vn -1.000000 0.000000 -0.000000
vn -1.000000 0.000000 -0.000000
vn 0.000000 1.000000 0.000000
vn 0.000000 1.000000 0.000000
vn -0.000000 1.000000 0.000001
vn -0.000000 1.000000 0.000001
vn 0.000001 1.000000 0.000000
vn 0.000001 1.000000 0.000000
vn 0.000000 1.000000 0.000000
vn 0.000000 1.000000 0.000000
vn 0.000000 0.000000 -1.000000
vn 0.000000 0.000000 -1.000000
vn 0.000000 0.000000 -1.000000
vn 0.000000 0.000000 -1.000000
vn 1.000000 0.000000 0.000000
vn 1.000000 0.000000 0.000000
vn 1.000000 0.000000 0.000000
vn 1.000000 0.000000 0.000000
vn -0.000000 0.000000 1.000000
vn -0.000000 0.000000 1.000000
vn -0.000000 0.000000 1.000000
vn -0.000000 0.000000 1.000000
vn -0.000000 0.000000 1.000000
vn -0.000000 0.000000 1.000000
vn -0.000000 0.000000 1.000000
vn -0.000000 0.000000 1.000000
vn 0.000000 0.000000 -1.000000
vn 0.000000 0.000000 -1.000000
vn 0.000000 0.000000 -1.000000
vn 0.000000 0.000000 -1.000000
vn 0.000000 0.000000 -1.000000
vn 0.000000 0.000000 -1.000000
vn 0.000000 0.000000 -1.000000
vn 0.000000 0.000000 -1.000000
vn -1.000000 0.000000 -0.000000
vn -1.000000 0.000000 -0.000000
vn -1.000000 0.000000 -0.000000
vn -1.000000 0.000000 -0.000000
vn 0.000000 -1.000000 0.000000
vn 0.000000 -1.000000 0.000000
vn 0.000000 -1.000000 0.000000
vn 0.000000 -1.000000 0.000000
vn 0.000000 0.000000 -1.000000
vn 0.000000 0.000000 -1.000000
vn 0.000000 0.000000 -1.000000
vn 0.000000 0.000000 -1.000000
vn 1.000000 0.000000 0.000000
vn 1.000000 0.000000 0.000000
vn 1.000000 0.000000 0.000000
vn 1.000000 0.000000 0.000000
vn 1.000000 0.000000 0.000000
vn 1.000000 0.000000 0.000000
vn 1.000000 0.000000 0.000000
vn 1.000000 0.000000 0.000000
vn -0.000000 0.000000 1.000000
vn -0.000000 0.000000 1.000000
vn -0.000000 0.000000 1.000000
vn -0.000000 0.000000 1.000000
vn -0.000000 0.000000 1.000000
vn -0.000000 0.000000 1.000000
vn -0.000000 0.000000 1.000000
vn -0.000000 0.000000 1.000000
vn 0.000000 0.000000 -1.000000
vn 0.000000 0.000000 -1.000000
vn 0.000000 0.000000 -1.000000
vn 0.000000 0.000000 -1.000000
vn 0.000000 0.000000 -1.000000
vn 0.000000 0.000000 -1.000000
vn 0.000000 0.000000 -1.000000
vn 0.000000 0.000000 -1.000000
vn -1.000000 0.000000 -0.000000
vn -1.000000 0.000000 -0.000000
vn -1.000000 0.000000 -0.000000
vn -1.000000 0.000000 -0.000000
vn -1.000000 0.000000 -0.000000
vn -1.000000 0.000000 -0.000000
vn -1.000000 0.000000 -0.000000
vn -1.000000 0.000000 -0.000000
vn 0.000001 1.000000 0.000000
vn 0.000001 1.000000 0.000000
vn 0.000001 1.000000 0.000000
vn 0.000001 1.000000 0.000000
vn 1.000000 0.000000 0.000000
vn 1.000000 0.000000 0.000000
vn 1.000000 0.000000 0.000000
vn 1.000000 0.000000 0.000000
vn -0.000000 0.000000 1.000000
vn -0.000000 0.000000 1.000000
vn -0.000000 0.000000 1.000000
vn -0.000000 0.000000 1.000000
vn -0.000000 0.000000 1.000000
vn -0.000000 0.000000 1.000000
vn -0.000000 0.000000 1.000000
vn -0.000000 0.000000 1.000000
vn 0.000000 0.000000 -1.000000
vn 0.000000 0.000000 -1.000000
vn 0.000000 0.000000 -1.000000
vn 0.000000 0.000000 -1.000000
vn 0.000000 0.000000 -1.000000
vn 0.000000 0.000000 -1.000000
vn 0.000000 0.000000 -1.000000
vn 0.000000 0.000000 -1.000000
vn -1.000000 0.000000 -0.000000
vn -1.000000 0.000000 -0.000000
vn -1.000000 0.000000 -0.000000
vn -1.000000 0.000000 -0.000000
vn -0.000000 0.000000 1.000000
vn -0.000000 0.000000 1.000000
vn -0.000000 0.000000 1.000000
vn -0.000000 0.000000 1.000000
vn 0.000000 -1.000000 0.000000
vn 0.000000 -1.000000 0.000000
vn 0.000000 -1.000000 0.000000
vn 0.000000 -1.000000 0.000000
vn 1.000000 0.000000 -0.000001
vn 1.000000 0.000000 -0.000001
vn 1.000000 0.000000 0.000000
vn 1.000000 0.000000 0.000000
vn 1.000000 0.000000 0.000000
vn 1.000000 0.000000 0.000000
vn 1.000000 0.000000 0.000000
vn 1.000000 0.000000 0.000000
vn -0.000000 0.000000 1.000000
vn -0.000000 0.000000 1.000000
vn -0.000000 0.000000 1.000000
vn -0.000000 0.000000 1.000000
vn -0.000000 0.000000 1.000000
vn -0.000000 0.000000 1.000000
vn -0.000000 0.000000 1.000000
vn -0.000000 0.000000 1.000000
vn 0.000000 0.000000 -1.000000
vn 0.000000 0.000000 -1.000000
vn 0.000000 0.000000 -1.000000
vn 0.000000 0.000000 -1.000000
vn 0.000000 0.000000 -1.000000
vn 0.000000 0.000000 -1.000000
vn 0.000000 0.000000 -1.000000
vn 0.000000 0.000000 -1.000000
vn -1.000000 0.000000 -0.000000
vn -1.000000 0.000000 -0.000000
vn -1.000000 0.000000 -0.000000
vn -1.000000 0.000000 -0.000000
vn -1.000000 0.000000 -0.000000
vn -1.000000 0.000000 -0.000000
vn -1.000000 0.000000 -0.000000
vn -1.000000 0.000000 -0.000000
vn 0.000001 1.000000 0.000000
vn 0.000001 1.000000 0.000000
vn 0.000001 1.000000 0.000001
vn 0.000001 1.000000 0.000001
vn 0.000000 0.000000 -1.000000
vn 0.000000 0.000000 -1.000000
vn 0.000000 0.000000 -1.000000
vn 0.000000 0.000000 -1.000000
vn 1.000000 0.000000 0.000000
vn 1.000000 0.000000 0.000000
vn 1.000000 0.000000 0.000000
vn 1.000000 0.000000 0.000000
vn -0.000000 0.000000 1.000000
vn -0.000000 0.000000 1.000000
vn -0.000000 0.000000 1.000000
vn -0.000000 0.000000 1.000000
vn -0.000000 0.000000 1.000000
vn -0.000000 0.000000 1.000000
vn -0.000000 0.000000 1.000000
vn -0.000000 0.000000 1.000000
vn 0.000000 0.000000 -1.000000
vn 0.000000 0.000000 -1.000000
vn 0.000000 0.000000 -1.000000
vn 0.000000 0.000000 -1.000000
vn 0.000000 0.000000 -1.000000
vn 0.000000 0.000000 -1.000000
vn 0.000000 0.000000 -1.000000
vn 0.000000 0.000000 -1.000000
vn -1.000000 0.000000 -0.000000
vn -1.000000 0.000000 -0.000000
vn -1.000000 0.000000 -0.000000
vn -1.000000 0.000000 -0.000000
vn -0.000000 0.000000 1.000000
vn -0.000000 0.000000 1.000000
vn -0.000000 0.000000 1.000000
vn -0.000000 0.000000 1.000000
vn -0.000000 0.000000 1.000000
vn -0.000000 0.000000 1.000000
vn -0.000000 0.000000 1.000000
vn -0.000000 0.000000 1.000000
vn -0.000001 -1.000000 -0.000001
vn -0.000001 -1.000000 -0.000000
vn -0.000001 -1.000000 -0.000000
vn -0.000001 -1.000000 -0.000001
vn 1.000000 0.000000 0.000000
vn 1.000000 0.000000 0.000000
vn 1.000000 0.000000 0.000000
vn 1.000000 0.000000 0.000000
vn 1.000000 0.000000 0.000000
vn 1.000000 0.000000 0.000000
vn 1.000000 0.000000 0.000000
vn 1.000000 0.000000 0.000000
vn -0.000000 0.000000 1.000000
vn -0.000000 0.000000 1.000000
vn -0.000000 0.000000 1.000000
vn -0.000000 0.000000 1.000000
vn -0.000000 0.000000 1.000000
vn -0.000000 0.000000 1.000000
vn -0.000000 0.000000 1.000000
vn -0.000000 0.000000 1.000000
vn 0.000000 0.000000 -1.000000
vn 0.000000 0.000000 -1.000000
vn 0.000000 0.000000 -1.000000
vn 0.000000 0.000000 -1.000000
vn 0.000000 0.000000 -1.000000
vn 0.000000 0.000000 -1.000000
vn 0.000000 0.000000 -1.000000
vn 0.000000 0.000000 -1.000000
vn -1.000000 0.000000 -0.000000
vn -1.000000 0.000000 -0.000000
vn -1.000000 0.000000 -0.000000
vn -1.000000 0.000000 -0.000000
vn -1.000000 0.000000 -0.000000
vn -1.000000 0.000000 -0.000000
vn -1.000000 0.000000 -0.000000
vn -1.000000 0.000000 -0.000000
vn 0.000000 1.000000 0.000000
vn 0.000000 1.000000 0.000000
vn 0.000000 1.000000 0.000000
vn 0.000000 1.000000 0.000000
vn 0.000000 0.000000 -1.000000
vn 0.000000 0.000000 -1.000000
vn 0.000000 0.000000 -1.000000
vn 0.000000 0.000000 -1.000000
vn 0.000000 0.000000 -1.000000
vn 0.000000 0.000000 -1.000000
vn 0.000000 0.000000 -1.000000
vn 0.000000 0.000000 -1.000000
vn 1.000000 0.000000 0.000000
vn 1.000000 0.000000 0.000000
vn 1.000000 0.000000 0.000000
vn 1.000000 0.000000 0.000000
vn -0.000000 0.000000 1.000000
vn -0.000000 0.000000 1.000000
vn -0.000000 0.000000 1.000000
vn -0.000000 0.000000 1.000000
vn 0.000000 0.000000 -1.000000
vn 0.000000 0.000000 -1.000000
vn 0.000000 0.000000 -1.000000
vn 0.000000 0.000000 -1.000000
vn 0.000000 0.000000 -1.000000
vn 0.000000 0.000000 -1.000000
vn 0.000000 0.000000 -1.000000
vn 0.000000 0.000000 -1.000000
vn -0.000000 0.000000 1.000000
vn -0.000000 0.000000 1.000000
vn -0.000000 0.000000 1.000000
vn -0.000000 0.000000 1.000000
vn -0.000000 0.000000 1.000000
vn -0.000000 0.000000 1.000000
vn -0.000000 0.000000 1.000000
vn -0.000000 0.000000 1.000000
vn -1.000000 0.000000 -0.000000
vn -1.000000 0.000000 -0.000000
vn -1.000000 0.000000 -0.000000
vn -1.000000 0.000000 -0.000000
vn 0.000000 -1.000000 0.000000
vn 0.000000 -1.000000 0.000000
vn 0.000000 -1.000000 0.000000
vn 0.000000 -1.000000 0.000000
vn 1.000000 0.000000 0.000000
vn 1.000000 0.000000 0.000000
vn 1.000000 0.000000 0.000000
vn 1.000000 0.000000 0.000000
vn -0.000000 0.000000 1.000000
vn -0.000000 0.000000 1.000000
vn -0.000000 0.000000 1.000000
vn -0.000000 0.000000 1.000000
vn 0.000000 0.000000 -1.000000
vn 0.000000 0.000000 -1.000000
vn 0.000000 0.000000 -1.000000
vn 0.000000 0.000000 -1.000000
vn -1.000000 0.000000 -0.000000
vn -1.000000 0.000000 -0.000000
vn -1.000000 0.000000 -0.000000
vn -1.000000 0.000000 -0.000000
vn 1.000000 0.000000 0.000000
vn 1.000000 0.000000 0.000000
vn 1.000000 0.000000 0.000000
vn 1.000000 0.000000 0.000000
vn 0.000000 1.000000 0.000000
vn 0.000000 1.000000 0.000000
vn 0.000000 1.000000 0.000000
vn 0.000000 1.000000 0.000000
vn 0.000000 0.000000 -1.000000
vn 0.000000 0.000000 -1.000000
vn 0.000000 0.000000 -1.000000
vn 0.000000 0.000000 -1.000000
vn 0.000000 0.000000 -1.000000
vn 0.000000 0.000000 -1.000000
vn 0.000000 0.000000 -1.000000
vn 0.000000 0.000000 -1.000000
vn 0.000000 1.000000 0.000000
vn 0.000000 1.000000 0.000000
vn 0.000000 1.000000 0.000000
vn 0.000000 1.000000 0.000000
vn 1.000000 0.000000 0.000000
vn 1.000000 0.000000 0.000000
vn 1.000000 0.000000 0.000000
vn 1.000000 0.000000 0.000000
vn -0.000000 0.000000 1.000000
vn -0.000000 0.000000 1.000000
vn -0.000000 0.000000 1.000000
vn -0.000000 0.000000 1.000000
vn 0.000000 0.000000 -1.000000
vn 0.000000 0.000000 -1.000000
vn 0.000000 0.000000 -1.000000
vn 0.000000 0.000000 -1.000000
vn 1.000000 0.000000 0.000000
vn 1.000000 0.000000 0.000000
vn 1.000000 0.000000 0.000000
vn 1.000000 0.000000 0.000000
vn -0.000000 0.000000 1.000000
vn -0.000000 0.000000 1.000000
vn -0.000000 0.000000 1.000000
vn -0.000000 0.000000 1.000000
vn 0.000000 0.000000 -1.000000
vn 0.000000 0.000000 -1.000000
vn 0.000000 0.000000 -1.000000
vn 0.000000 0.000000 -1.000000
vn -1.000000 0.000000 -0.000000
vn -1.000000 0.000000 -0.000000
vn -1.000000 0.000000 -0.000000
vn -1.000000 0.000000 -0.000000
vn 1.000000 0.000000 0.000000
vn 1.000000 0.000000 0.000000
vn 1.000000 0.000000 0.000000
vn 1.000000 0.000000 0.000000
vn -0.000000 0.000000 1.000000
vn -0.000000 0.000000 1.000000
vn -0.000000 0.000000 1.000000
vn -0.000000 0.000000 1.000000
vn 0.000000 0.000000 -1.000000
vn 0.000000 0.000000 -1.000000
vn 0.000000 0.000000 -1.000000
vn 0.000000 0.000000 -1.000000
vn 1.000000 0.000000 0.000000
vn 1.000000 0.000000 0.000000
vn 1.000000 0.000000 0.000000
vn 1.000000 0.000000 0.000000
vn 0.000000 0.000000 -1.000000
vn 0.000000 0.000000 -1.000000
vn 0.000000 0.000000 -1.000000
vn 0.000000 0.000000 -1.000000
vn -0.000000 0.000000 1.000000
vn -0.000000 0.000000 1.000000
vn -0.000000 0.000000 1.000000
vn -0.000000 0.000000 1.000000
vn -1.000000 0.000000 -0.000000
vn -1.000000 0.000000 -0.000000
vn -1.000000 0.000000 -0.000000
vn -1.000000 0.000000 -0.000000
vn 1.000000 0.000000 0.000000
vn 1.000000 0.000000 0.000000
vn 1.000000 0.000000 0.000000
vn 1.000000 0.000000 0.000000
vn 0.000000 0.000000 -1.000000
vn 0.000000 0.000000 -1.000000
vn 0.000000 0.000000 -1.000000
vn 0.000000 0.000000 -1.000000
vn 0.000000 1.000000 0.000000
vn 0.000000 1.000000 0.000000
vn 0.000000 1.000000 0.000000
vn 0.000000 1.000000 0.000000
vn 0.000000 0.000000 -1.000000
vn 0.000000 0.000000 -1.000000
vn 0.000000 0.000000 -1.000000
vn 0.000000 0.000000 -1.000000
vn 0.000000 1.000000 0.000000
vn 0.000000 1.000000 0.000000
vn 0.000000 1.000000 0.000000
vn 0.000000 1.000000 0.000000
vn -1.000000 0.000000 -0.000000
vn -1.000000 0.000000 -0.000000
vn -1.000000 0.000000 -0.000000
vn -1.000000 0.000000 -0.000000
vn -1.000000 0.000000 -0.000000
vn -1.000000 0.000000 -0.000000
vn -1.000000 0.000000 -0.000000
vn -1.000000 0.000000 -0.000000
vn 0.000000 0.000000 -1.000000
vn 0.000000 0.000000 -1.000000
vn 0.000000 0.000000 -1.000000
vn 0.000000 0.000000 -1.000000
vn 0.000000 0.000000 -1.000000
vn 0.000000 0.000000 -1.000000
vn 0.000000 0.000000 -1.000000
vn 0.000000 0.000000 -1.000000
vn -0.000000 0.000000 1.000000
vn -0.000000 0.000000 1.000000
vn -0.000000 0.000000 1.000000
vn -0.000000 0.000000 1.000000
vn -0.000000 0.000000 1.000000
vn -0.000000 0.000000 1.000000
vn -0.000000 0.000000 1.000000
vn -0.000000 0.000000 1.000000
vn 1.000000 0.000000 0.000000
vn 1.000000 0.000000 0.000000
vn 1.000000 0.000000 0.000000
vn 1.000000 0.000000 0.000000
vn 1.000000 0.000000 0.000000
vn 1.000000 0.000000 0.000000
vn 1.000000 0.000000 0.000000
vn 1.000000 0.000000 0.000000
vn 0.000000 -1.000000 0.000000
vn 0.000000 -1.000000 0.000000
vn 0.000000 -1.000000 0.000000
vn 0.000000 -1.000000 0.000000
vn -0.000000 0.000000 1.000000
vn -0.000000 0.000000 1.000000
vn -0.000000 0.000000 1.000000
vn -0.000000 0.000000 1.000000
vn -1.000000 0.000000 -0.000000
vn -1.000000 0.000000 -0.000000
vn -1.000000 0.000000 -0.000000
vn -1.000000 0.000000 -0.000000
vn 0.000000 0.000000 -1.000000
vn 0.000000 0.000000 -1.000000
vn 0.000000 0.000000 -1.000000
vn 0.000000 0.000000 -1.000000
vn 0.000000 0.000000 -1.000000
vn 0.000000 0.000000 -1.000000
vn 0.000000 0.000000 -1.000000
vn 0.000000 0.000000 -1.000000
vn -0.000000 0.000000 1.000000
vn -0.000000 0.000000 1.000000
vn -0.000000 0.000000 1.000000
vn -0.000000 0.000000 1.000000
vn -0.000000 0.000000 1.000000
vn -0.000000 0.000000 1.000000
vn -0.000000 0.000000 1.000000
vn -0.000000 0.000000 1.000000
vn 1.000000 0.000000 0.000000
vn 1.000000 0.000000 0.000000
vn 1.000000 0.000000 0.000000
vn 1.000000 0.000000 0.000000
vn 0.000000 0.000000 -1.000000
vn 0.000000 0.000000 -1.000000
vn 0.000000 0.000000 -1.000000
vn 0.000000 0.000000 -1.000000
vn 0.000000 1.000000 0.000000
vn 0.000000 1.000000 0.000000
vn 0.000000 1.000000 0.000000
vn 0.000000 1.000000 0.000000
vn -1.000000 0.000000 -0.000000
vn -1.000000 0.000000 -0.000000
vn -1.000000 0.000000 -0.000000
vn -1.000000 0.000000 -0.000000
vn -1.000000 0.000000 -0.000000
vn -1.000000 0.000000 -0.000000
vn -1.000000 0.000000 -0.000000
vn -1.000000 0.000000 -0.000000
vn 0.000000 0.000000 -1.000000
vn 0.000000 0.000000 -1.000000
vn 0.000000 0.000000 -1.000000
vn 0.000000 0.000000 -1.000000
vn -0.000000 0.000000 1.000000
vn -0.000000 0.000000 1.000000
vn -0.000000 0.000000 1.000000
vn -0.000000 0.000000 1.000000
vn -0.000000 0.000000 1.000000
vn -0.000000 0.000000 1.000000
vn -0.000000 0.000000 1.000000
vn -0.000000 0.000000 1.000000
vn 0.000000 -1.000000 0.000000
vn 0.000000 -1.000000 0.000000
vn 0.000000 -1.000000 0.000000
vn 0.000000 -1.000000 0.000000
vn 1.000000 0.000000 0.000000
vn 1.000000 0.000000 0.000000
vn 1.000000 0.000000 0.000000
vn 1.000000 0.000000 0.000000
vn 0.000000 -1.000000 0.000000
vn 0.000000 -1.000000 0.000000
vn 0.000000 -1.000000 0.000000
vn 0.000000 -1.000000 0.000000
vn -0.000000 0.000000 1.000000
vn -0.000000 0.000000 1.000000
vn -0.000000 0.000000 1.000000
vn -0.000000 0.000000 1.000000
vn -1.000000 0.000000 -0.000000
vn -1.000000 0.000000 -0.000000
vn -1.000000 0.000000 -0.000000
vn -1.000000 0.000000 -0.000000
vn 0.000000 0.000000 -1.000000
vn 0.000000 0.000000 -1.000000
vn 0.000000 0.000000 -1.000000
vn 0.000000 0.000000 -1.000000
vn -0.000000 0.000000 1.000000
vn -0.000000 0.000000 1.000000
vn -0.000000 0.000000 1.000000
vn -0.000000 0.000000 1.000000
vn -1.000000 0.000000 -0.000000
vn -1.000000 0.000000 -0.000000
vn -1.000000 0.000000 -0.000000
vn -1.000000 0.000000 -0.000000
vn 0.000000 0.000000 -1.000000
vn 0.000000 0.000000 -1.000000
vn 0.000000 0.000000 -1.000000
vn 0.000000 0.000000 -1.000000
vn -0.000000 0.000000 1.000000
vn -0.000000 0.000000 1.000000
vn -0.000000 0.000000 1.000000
vn -0.000000 0.000000 1.000000
vn 1.000000 0.000000 0.000000
vn 1.000000 0.000000 0.000000
vn 1.000000 0.000000 0.000000
vn 1.000000 0.000000 0.000000
vn -1.000000 0.000000 -0.000000
vn -1.000000 0.000000 -0.000000
vn -1.000000 0.000000 -0.000000
vn -1.000000 0.000000 -0.000000
vn 0.000000 0.000000 -1.000000
vn 0.000000 0.000000 -1.000000
vn 0.000000 0.000000 -1.000000
vn 0.000000 0.000000 -1.000000
vn -0.000000 0.000000 1.000000
vn -0.000000 0.000000 1.000000
vn -0.000000 0.000000 1.000000
vn -0.000000 0.000000 1.000000
vn -1.000000 0.000000 -0.000000
vn -1.000000 0.000000 -0.000000
vn -1.000000 0.000000 -0.000000
vn -1.000000 0.000000 -0.000000
vn 0.000000 0.000000 -1.000000
vn 0.000000 0.000000 -1.000000
vn 0.000000 0.000000 -1.000000
vn 0.000000 0.000000 -1.000000
vn -0.000000 0.000000 1.000000
vn -0.000000 0.000000 1.000000
vn -0.000000 0.000000 1.000000
vn -0.000000 0.000000 1.000000
vn 1.000000 0.000000 0.000000
vn 1.000000 0.000000 0.000000
vn 1.000000 0.000000 0.000000
vn 1.000000 0.000000 0.000000
vn -1.000000 0.000000 -0.000000
vn -1.000000 0.000000 -0.000000
vn -1.000000 0.000000 -0.000000
vn -1.000000 0.000000 -0.000000
vn -0.000000 0.000000 1.000000
vn -0.000000 0.000000 1.000000
vn -0.000000 0.000000 1.000000
vn -0.000000 0.000000 1.000000
vn 0.000000 -1.000000 0.000000
vn 0.000000 -1.000000 0.000000
vn 0.000000 -1.000000 0.000000
vn 0.000000 -1.000000 0.000000
vn 1.000000 0.000000 0.000000
vn 1.000000 0.000000 0.000000
vn 1.000000 0.000000 0.000000
vn 1.000000 0.000000 0.000000
vn 1.000000 0.000000 0.000000
vn 1.000000 0.000000 0.000000
vn 1.000000 0.000000 0.000000
vn 1.000000 0.000000 0.000000
vn 0.000000 -1.000000 0.000000
vn 0.000000 -1.000000 0.000000
vn 0.000000 -1.000000 0.000000
vn 0.000000 -1.000000 0.000000
vn -1.000000 0.000000 -0.000000
vn -1.000000 0.000000 -0.000000
vn -1.000000 0.000000 -0.000000
vn -1.000000 0.000000 -0.000000
vn 0.000000 -1.000000 0.000000
vn 0.000000 -1.000000 0.000000
vn 0.000000 -1.000000 0.000000
vn 0.000000 -1.000000 0.000000
vn 1.000000 0.000000 0.000000
vn 1.000000 0.000000 0.000000
vn 1.000000 0.000000 0.000000
vn 1.000000 0.000000 0.000000
vn 0.000000 -1.000000 0.000000
vn 0.000000 -1.000000 0.000000
vn 0.000000 -1.000000 0.000000
vn 0.000000 -1.000000 0.000000
vn -1.000000 0.000000 -0.000000
vn -1.000000 0.000000 -0.000000
vn -1.000000 0.000000 -0.000000
vn -1.000000 0.000000 -0.000000
vn -1.000000 0.000000 -0.000000
vn -1.000000 0.000000 -0.000000
vn -1.000000 0.000000 -0.000000
vn -1.000000 0.000000 -0.000000
vn -1.000000 0.000000 -0.000000
vn -1.000000 0.000000 -0.000000
vn -1.000000 0.000000 -0.000000
vn -1.000000 0.000000 -0.000000
vn -1.000000 0.000000 -0.000000
vn -1.000000 0.000000 -0.000000
vn -1.000000 0.000000 -0.000000
vn -1.000000 0.000000 -0.000000
vn -1.000000 0.000000 -0.000000
vn -1.000000 0.000000 -0.000000
vn -1.000000 0.000000 -0.000000
vn -1.000000 0.000000 -0.000000
vn -1.000000 0.000000 -0.000000
vn -1.000000 0.000000 -0.000000
vn -1.000000 0.000000 -0.000000
vn -1.000000 0.000000 -0.000000
vn -1.000000 0.000000 -0.000000
vn -1.000000 0.000000 -0.000000
vn -1.000000 0.000000 -0.000000
vn -1.000000 0.000000 -0.000000
vn -1.000000 0.000000 -0.000000
vn -1.000000 0.000000 -0.000000
vn -1.000000 0.000000 -0.000000
vn -1.000000 0.000000 -0.000000
vn -1.000000 0.000000 -0.000000
vn -1.000000 0.000000 -0.000000
vn -1.000000 0.000000 -0.000000
vn -1.000000 0.000000 -0.000000
vn -1.000000 0.000000 -0.000000
vn -1.000000 0.000000 -0.000000
vn -1.000000 0.000000 -0.000000
vn -1.000000 0.000000 -0.000000
vn -1.000000 0.000000 -0.000000
vn -1.000000 0.000000 -0.000000
vn -1.000000 0.000000 -0.000000
vn -1.000000 0.000000 -0.000000
vn -1.000000 0.000000 -0.000000
vn -1.000000 0.000000 -0.000000
vn -1.000000 0.000000 -0.000000
vn -1.000000 0.000000 -0.000000
vn -1.000000 0.000000 -0.000000
vn -1.000000 0.000000 -0.000000
vn -1.000000 0.000000 -0.000000
vn -1.000000 0.000000 -0.000000
vn -1.000000 0.000000 -0.000000
vn -1.000000 0.000000 -0.000000
vn -1.000000 0.000000 -0.000000
vn -1.000000 0.000000 -0.000000
vn -1.000000 0.000000 -0.000000
vn -1.000000 0.000000 -0.000000
vn -1.000000 0.000000 -0.000000
vn -1.000000 0.000000 -0.000000
vn -1.000000 0.000000 -0.000000
vn -1.000000 0.000000 -0.000000
vn -1.000000 0.000000 -0.000000
vn -1.000000 0.000000 -0.000000
vn -1.000000 0.000000 -0.000000
vn -1.000000 0.000000 -0.000000
vn -1.000000 0.000000 -0.000000
vn -1.000000 0.000000 -0.000000
vn 0.000000 1.000000 0.000000
vn 0.000000 1.000000 0.000000
vn 0.000000 1.000000 0.000000
vn 0.000000 1.000000 0.000000
vn 1.000000 0.000000 0.000000
vn 1.000000 0.000000 0.000000
vn 1.000000 0.000000 0.000000
vn 1.000000 0.000000 0.000000
vn 0.000000 1.000000 0.000000
vn 0.000000 1.000000 0.000000
vn 0.000000 1.000000 0.000000
vn 0.000000 1.000000 0.000000
vn -1.000000 0.000000 -0.000000
vn -1.000000 0.000000 -0.000000
vn -1.000000 0.000000 -0.000000
vn -1.000000 0.000000 -0.000000
vn 0.000000 1.000000 0.000000
vn 0.000000 1.000000 0.000000
vn 0.000000 1.000000 0.000000
vn 0.000000 1.000000 0.000000
vn 1.000000 0.000000 0.000000
vn 1.000000 0.000000 0.000000
vn 1.000000 0.000000 0.000000
vn 1.000000 0.000000 0.000000
vn 1.000000 0.000000 0.000000
vn 1.000000 0.000000 0.000000
vn 1.000000 0.000000 0.000000
vn 1.000000 0.000000 0.000000
vn 1.000000 0.000000 0.000000
vn 1.000000 0.000000 0.000000
vn 1.000000 0.000000 0.000000
vn 1.000000 0.000000 0.000000
vn 1.000000 0.000000 0.000000
vn 1.000000 0.000000 0.000000
vn 1.000000 0.000000 0.000000
vn 1.000000 0.000000 0.000000
vn 1.000000 0.000000 0.000000
vn 1.000000 0.000000 0.000000
vn 1.000000 0.000000 0.000000
vn 1.000000 0.000000 0.000000
vn 1.000000 0.000000 0.000000
vn 1.000000 0.000000 0.000000
vn 1.000000 0.000000 0.000000
vn 1.000000 0.000000 0.000000
vn 1.000000 0.000000 0.000000
vn 1.000000 0.000000 0.000000
vn 1.000000 0.000000 0.000000
vn 1.000000 0.000000 0.000000
vn 1.000000 0.000000 0.000000
vn 1.000000 0.000000 0.000000
vn 1.000000 0.000000 0.000000
vn 1.000000 0.000000 0.000000
vn 1.000000 0.000000 0.000000
vn 1.000000 0.000000 0.000000
vn 1.000000 0.000000 0.000000
vn 1.000000 0.000000 0.000000
vn 1.000000 0.000000 0.000000
vn 1.000000 0.000000 0.000000
vn 1.000000 0.000000 0.000000
vn 1.000000 0.000000 0.000000
vn 1.000000 0.000000 0.000000
vn 1.000000 0.000000 0.000000
vn 1.000000 0.000000 0.000000
vn 1.000000 0.000000 0.000000
vn 1.000000 0.000000 0.000000
vn 1.000000 0.000000 0.000000
vn 1.000000 0.000000 0.000000
vn 1.000000 0.000000 0.000000
vn 1.000000 0.000000 0.000000
vn 1.000000 0.000000 0.000000
vn 1.000000 0.000000 0.000000
vn 1.000000 0.000000 0.000000
vn 1.000000 0.000000 0.000000
vn 1.000000 0.000000 0.000000
vn 1.000000 0.000000 0.000000
vn 1.000000 0.000000 0.000000
vn 1.000000 0.000000 0.000000
vn 1.000000 0.000000 0.000000
vn 1.000000 0.000000 0.000000
vn 1.000000 0.000000 0.000000
vn 0.000000 1.000000 0.000000
vn 0.000000 1.000000 0.000000
vn 0.000000 1.000000 0.000000
vn 0.000000 1.000000 0.000000
vn 1.000000 0.000000 0.000000
vn 1.000000 0.000000 0.000000
vn 1.000000 0.000000 0.000000
vn 1.000000 0.000000 0.000000
vn 0.000000 -1.000000 0.000000
vn 0.000000 -1.000000 0.000000
vn 0.000000 -1.000000 0.000000
vn 0.000000 -1.000000 0.000000
vn -1.000000 0.000000 -0.000000
vn -1.000000 0.000000 -0.000000
vn -1.000000 0.000000 -0.000000
vn -1.000000 0.000000 -0.000000
vn -1.000000 0.000000 -0.000000
vn -1.000000 0.000000 -0.000000
vn -1.000000 0.000000 -0.000000
vn -1.000000 0.000000 -0.000000
vn 0.000000 1.000000 0.000000
vn 0.000000 1.000000 0.000000
vn 0.000000 1.000000 0.000000
vn 0.000000 1.000000 0.000000
vn 1.000000 0.000000 0.000000
vn 1.000000 0.000000 0.000000
vn 1.000000 0.000000 0.000000
vn 1.000000 0.000000 0.000000
vn 0.000000 -1.000000 0.000000
vn 0.000000 -1.000000 0.000000
vn 0.000000 -1.000000 0.000000
vn 0.000000 -1.000000 0.000000
vn 1.000000 0.000000 0.000000
vn 1.000000 0.000000 0.000000
vn 1.000000 0.000000 0.000000
vn 1.000000 0.000000 0.000000
vn 0.000001 1.000000 0.000000
vn 0.000001 1.000000 0.000000
vn 0.000001 1.000000 0.000000
vn 0.000001 1.000000 0.000000
vn -1.000000 0.000000 -0.000000
vn -1.000000 0.000000 -0.000000
vn -1.000000 0.000000 -0.000000
vn -1.000000 0.000000 -0.000000
vn -0.000001 -1.000000 -0.000000
vn -0.000001 -1.000000 -0.000000
vn -0.000001 -1.000000 -0.000000
vn -0.000001 -1.000000 -0.000000
vn 1.000000 0.000000 0.000000
vn 1.000000 0.000000 0.000000
vn 1.000000 0.000000 0.000000
vn 1.000000 0.000000 0.000000
vn 0.000000 -1.000000 0.000000
vn 0.000000 -1.000000 0.000000
vn 0.000000 -1.000000 0.000000
vn 0.000000 -1.000000 0.000000
vn -1.000000 0.000000 -0.000000
vn -1.000000 0.000000 -0.000000
vn -1.000000 0.000000 -0.000000
vn -1.000000 0.000000 -0.000000
vn 0.000000 1.000000 0.000000
vn 0.000000 1.000000 0.000000
vn 0.000000 1.000000 0.000000
vn 0.000000 1.000000 0.000000
vn 1.000000 0.000000 0.000000
vn 1.000000 0.000000 0.000000
vn 1.000000 0.000000 0.000000
vn 1.000000 0.000000 0.000000
vn 0.000000 -1.000000 0.000000
vn 0.000000 -1.000000 0.000000
vn 0.000000 -1.000000 0.000000
vn 0.000000 -1.000000 0.000000
vn -1.000000 0.000000 -0.000000
vn -1.000000 0.000000 -0.000000
vn -1.000000 0.000000 -0.000000
vn -1.000000 0.000000 -0.000000
vn 0.000001 1.000000 0.000000
vn 0.000001 1.000000 0.000000
vn 0.000001 1.000000 0.000000
vn 0.000001 1.000000 0.000000
vn 1.000000 0.000000 0.000000
vn 1.000000 0.000000 0.000000
vn 1.000000 0.000000 0.000002
vn 1.000000 0.000000 0.000002
vn -0.000001 -1.000000 -0.000000
vn -0.000001 -1.000000 -0.000000
vn -0.000001 -1.000000 0.000001
vn -0.000001 -1.000000 0.000001
vn -1.000000 0.000000 -0.000000
vn -1.000000 0.000000 -0.000000
vn -1.000000 0.000000 -0.000000
vn -1.000000 0.000000 -0.000000
vn 0.000001 1.000000 -0.000001
vn 0.000001 1.000000 0.000000
vn 0.000001 1.000000 0.000000
vn 0.000001 1.000000 -0.000001
vn 1.000000 0.000000 0.000000
vn 1.000000 0.000000 0.000000
vn 1.000000 0.000000 0.000000
vn 1.000000 0.000000 0.000000
vn 0.000000 -1.000000 0.000000
vn 0.000000 -1.000000 0.000000
vn 0.000000 -1.000000 0.000000
vn 0.000000 -1.000000 0.000000
vn -1.000000 0.000000 -0.000000
vn -1.000000 0.000000 -0.000000
vn -1.000000 0.000000 -0.000000
vn -1.000000 0.000000 -0.000000
vn 0.000000 1.000000 0.000000
vn 0.000000 1.000000 0.000000
vn 0.000000 1.000000 0.000000
vn 0.000000 1.000000 0.000000
s off
g MDL_ScalaPioli1 MDL_Props
usemtl lambert4SG
f 188/1/1 145/2/2 3/3/3 4/4/4
f 5/5/5 6/6/6 7/7/7 8/8/8
f 9/9/9 1/10/10 10/11/11 11/12/12
f 12/13/13 13/14/14 14/15/15 15/16/16
f 3/3/17 16/17/18 17/18/19 4/4/20
f 14/15/21 160/19/22 161/20/23 18/21/24
f 19/22/25 20/23/26 109/24/27 116/25/28
f 200/26/29 197/27/30 12/13/31 37/28/32
f 196/29/33 193/30/34 19/22/35 116/25/36
f 7/7/37 6/6/38 201/31/39 202/32/40
f 187/33/41 188/1/42 4/4/43 24/34/44
f 8/8/45 7/7/46 25/35/47 26/36/48
f 11/12/49 10/11/50 27/37/51 19/22/52
f 15/16/53 14/15/54 18/21/55 23/38/56
f 4/4/57 17/18/58 28/39/59 24/34/60
f 161/20/61 162/40/62 29/41/63 18/21/64
f 45/42/65 6/6/66 21/43/67 38/44/68
f 193/30/69 194/45/70 11/12/71 19/22/72
f 204/46/73 201/31/74 6/6/75 45/42/76
f 198/47/77 199/48/78 30/49/79 108/50/80
f 108/50/81 30/49/82 22/51/83 107/52/84
f 186/53/85 187/33/86 24/34/87 31/54/88
f 26/36/89 25/35/90 32/55/91 33/56/92
f 19/22/93 27/37/94 34/57/95 20/23/96
f 23/38/97 18/21/98 29/41/99 35/58/100
f 24/34/101 28/39/102 22/51/103 31/54/104
f 29/41/105 162/40/106 163/59/107 36/60/108
f 202/32/109 203/61/110 53/62/111 7/7/112
f 15/16/113 46/63/114 37/28/115 12/13/116
f 32/55/117 25/35/118 205/64/119 206/65/120
f 185/66/121 186/53/122 31/54/123 40/67/124
f 33/56/125 32/55/126 41/68/127 42/69/128
f 20/23/129 34/57/130 43/70/131 38/44/132
f 35/58/133 29/41/134 36/60/135 39/71/136
f 31/54/137 22/51/138 30/49/139 40/67/140
f 163/59/141 164/72/142 44/73/143 36/60/144
f 30/49/145 199/48/146 200/26/147 37/28/148
f 208/74/149 205/64/150 25/35/151 54/75/152
f 184/76/153 185/66/154 40/67/155 47/77/156
f 42/69/157 41/68/158 48/78/159 49/79/160
f 38/44/161 43/70/162 50/80/163 45/42/164
f 39/71/165 36/60/166 44/73/167 51/81/168
f 40/67/169 30/49/170 37/28/171 47/77/172
f 44/73/173 164/72/174 165/82/175 52/83/176
f 53/62/177 54/75/178 25/35/179 7/7/180
f 206/65/181 207/84/182 69/85/183 32/55/184
f 48/78/185 41/68/186 209/86/187 210/87/188
f 183/88/189 184/76/190 47/77/191 57/89/192
f 49/79/193 48/78/194 58/90/195 59/91/196
f 45/42/197 50/80/198 60/92/199 53/62/200
f 51/81/201 44/73/202 52/83/203 56/93/204
f 47/77/205 37/28/206 46/63/207 57/89/208
f 165/82/209 166/94/210 61/95/211 52/83/212
f 203/61/213 204/46/214 45/42/215 53/62/216
f 212/96/217 209/86/218 41/68/219 70/97/220
f 35/58/221 62/98/222 55/99/223 23/38/224
f 182/100/225 183/88/226 57/89/227 63/101/228
f 59/91/229 58/90/230 64/102/231 65/103/232
f 53/62/233 60/92/234 66/104/235 54/75/236
f 56/93/237 52/83/238 61/95/239 67/105/240
f 57/89/241 46/63/242 55/99/243 63/101/244
f 61/95/245 166/94/246 167/106/247 68/107/248
f 48/78/249 86/108/250 90/109/251 58/90/252
f 69/85/253 70/97/254 41/68/255 32/55/256
f 48/78/257 210/87/258 211/110/259 86/108/260
f 64/102/261 58/90/262 213/111/263 214/112/264
f 181/113/265 182/100/266 63/101/267 73/114/268
f 65/103/269 64/102/270 74/115/271 75/116/272
f 54/75/273 66/104/274 76/117/275 69/85/276
f 67/105/277 61/95/278 68/107/279 72/118/280
f 63/101/281 55/99/282 62/98/283 73/114/284
f 167/106/285 168/119/286 77/120/287 68/107/288
f 207/84/289 208/74/290 54/75/291 69/85/292
f 90/109/293 216/121/294 213/111/295 58/90/296
f 91/122/297 85/123/298 56/93/299 67/105/300
f 51/81/301 78/124/302 71/125/303 39/71/304
f 180/126/305 181/113/306 73/114/307 79/127/308
f 69/85/309 76/117/310 80/128/311 70/97/312
f 72/118/313 68/107/314 77/120/315 81/129/316
f 73/114/317 62/98/318 71/125/319 79/127/320
f 75/116/321 74/115/322 82/130/323 83/131/324
f 74/115/325 64/102/326 94/132/327 95/133/328
f 168/119/329 169/134/330 84/135/331 77/120/332
f 64/102/333 214/112/334 215/136/335 94/132/336
f 179/137/337 180/126/338 79/127/339 87/138/340
f 70/97/341 80/128/342 88/139/343 86/108/344
f 79/127/345 71/125/346 78/124/347 87/138/348
f 211/110/349 212/96/350 70/97/351 86/108/352
f 170/140/353 171/141/354 81/129/355 89/142/356
f 81/129/357 171/141/358 172/143/359 99/144/360
f 81/129/361 77/120/362 84/135/363 89/142/364
f 72/118/365 81/129/366 99/144/367 96/145/368
f 169/146/369 170/147/370 89/142/371 84/135/372
f 178/148/373 179/137/374 87/138/375 92/149/376
f 86/108/377 88/139/378 93/150/379 90/109/380
f 87/138/381 78/124/382 85/123/383 92/149/384
f 177/151/385 178/148/386 92/149/387 97/152/388
f 90/109/389 93/150/390 98/153/391 94/132/392
f 92/149/393 85/123/394 91/122/395 97/152/396
f 215/136/397 216/121/398 90/109/399 94/132/400
f 176/154/401 177/151/402 97/152/403 100/155/404
f 94/132/405 98/153/406 101/156/407 95/133/408
f 97/152/409 91/122/410 96/145/411 100/155/412
f 175/157/413 176/154/414 100/155/415 102/158/416
f 100/155/417 96/145/418 99/144/419 102/158/420
f 95/133/421 101/156/422 103/159/423 104/160/424
f 172/143/425 173/161/426 105/162/427 99/144/428
f 174/163/429 175/157/430 102/158/431 106/164/432
f 102/158/433 99/144/434 105/162/435 106/164/436
f 173/165/437 174/166/438 106/164/439 105/162/440
f 28/39/441 17/18/442 123/167/443 124/168/444
f 11/12/445 194/45/446 195/169/447 125/170/448
f 192/171/449 189/172/450 110/173/451 9/9/452
f 159/174/453 160/19/454 14/15/455 13/14/456
f 112/175/457 113/176/458 16/17/459 3/3/460
f 108/50/461 114/177/462 13/14/463 12/13/464
f 110/173/465 2/178/466 1/10/467 9/9/468
f 111/179/469 21/43/470 6/6/471 5/5/472
f 145/2/473 146/180/474 112/175/475 3/3/476
f 197/27/477 198/47/478 108/50/479 12/13/480
f 191/181/481 192/171/482 9/9/483 129/182/484
f 9/9/485 11/12/486 125/170/487 129/182/488
f 114/177/489 158/183/490 159/174/491 13/14/492
f 118/184/493 119/185/494 113/176/495 112/175/496
f 107/52/497 120/186/498 114/177/499 108/50/500
f 121/187/501 115/188/502 2/178/503 110/173/504
f 117/189/505 109/24/506 21/43/507 111/179/508
f 146/180/509 147/190/510 118/184/511 112/175/512
f 16/17/513 113/176/514 132/191/515 133/192/516
f 110/173/517 189/172/518 190/193/519 134/194/520
f 119/185/521 148/195/522 149/196/523 113/176/524
f 157/197/525 158/183/526 114/177/527 120/186/528
f 124/168/529 128/198/530 120/186/531 107/52/532
f 126/199/533 122/200/534 115/188/535 121/187/536
f 127/201/537 116/25/538 109/24/539 117/189/540
f 147/202/541 148/203/542 119/185/543 118/184/544
f 116/25/545 125/170/546 195/169/547 196/29/548
f 113/176/549 149/196/550 150/204/551 132/191/552
f 121/187/553 110/173/554 134/194/555 137/205/556
f 128/198/557 156/206/558 157/197/559 120/186/560
f 123/167/561 131/207/562 128/198/563 124/168/564
f 130/208/565 125/170/566 116/25/567 127/201/568
f 155/209/569 156/206/570 128/198/571 131/207/572
f 133/192/573 136/210/574 131/207/575 123/167/576
f 135/211/577 129/182/578 125/170/579 130/208/580
f 129/182/581 134/194/582 190/193/583 191/181/584
f 136/210/585 154/212/586 155/209/587 131/207/588
f 132/191/589 139/213/590 136/210/591 133/192/592
f 138/214/593 134/194/594 129/182/595 135/211/596
f 153/215/597 154/212/598 136/210/599 139/213/600
f 141/216/601 142/217/602 139/213/603 132/191/604
f 140/218/605 137/205/606 134/194/607 138/214/608
f 150/204/609 151/219/610 141/216/611 132/191/612
f 142/217/613 152/220/614 153/215/615 139/213/616
f 144/221/617 143/222/618 137/205/619 140/218/620
f 151/223/621 152/224/622 142/217/623 141/216/624
f 115/188/625 146/225/626 145/226/627 2/178/628
f 115/188/629 122/200/630 147/227/631 146/225/632
f 126/199/633 148/228/634 147/229/635 122/200/636
f 149/230/637 148/231/638 126/199/639 121/187/640
f 150/232/641 149/230/642 121/187/643 137/205/644
f 137/205/645 143/222/646 151/233/647 150/232/648
f 144/221/649 152/234/650 151/235/651 143/222/652
f 153/236/653 152/237/654 144/221/655 140/218/656
f 138/214/657 154/238/658 153/236/659 140/218/660
f 155/239/661 154/238/662 138/214/663 135/211/664
f 130/208/665 156/240/666 155/239/667 135/211/668
f 157/241/669 156/240/670 130/208/671 127/201/672
f 117/189/673 158/242/674 157/241/675 127/201/676
f 159/243/677 158/242/678 117/189/679 111/179/680
f 5/5/681 160/244/682 159/243/683 111/179/684
f 161/245/685 160/244/686 5/5/687 8/8/688
f 26/36/689 162/246/690 161/245/691 8/8/692
f 163/247/693 162/246/694 26/36/695 33/56/696
f 42/69/697 164/248/698 163/249/699 33/56/700
f 165/250/701 164/248/702 42/69/703 49/79/704
f 59/91/705 166/251/706 165/250/707 49/79/708
f 167/252/709 166/251/710 59/91/711 65/103/712
f 75/116/713 168/253/714 167/252/715 65/103/716
f 83/131/717 169/254/718 168/253/719 75/116/720
f 82/130/721 170/255/722 169/256/723 83/131/724
f 74/115/725 171/257/726 170/258/727 82/130/728
f 172/259/729 171/257/730 74/115/731 95/133/732
f 104/160/733 173/260/734 172/259/735 95/133/736
f 103/159/737 174/261/738 173/262/739 104/160/740
f 101/156/741 175/263/742 174/264/743 103/159/744
f 98/153/745 176/265/746 175/263/747 101/156/748
f 98/153/749 93/150/750 177/266/751 176/265/752
f 88/139/753 178/267/754 177/266/755 93/150/756
f 88/139/757 80/128/758 179/268/759 178/267/760
f 76/117/761 180/269/762 179/268/763 80/128/764
f 76/117/765 66/104/766 181/270/767 180/269/768
f 60/92/769 182/271/770 181/270/771 66/104/772
f 60/92/773 50/80/774 183/272/775 182/271/776
f 43/70/777 184/273/778 183/272/779 50/80/780
f 43/70/781 34/57/782 185/274/783 184/273/784
f 27/37/785 186/275/786 185/274/787 34/57/788
f 27/37/789 10/11/790 187/276/791 186/275/792
f 1/10/793 188/277/794 187/276/795 10/11/796
f 1/10/797 2/178/798 145/226/799 188/277/800
f 190/278/801 189/279/802 16/17/803 133/192/804
f 191/280/805 190/278/806 133/192/807 123/167/808
f 17/18/809 192/281/810 191/280/811 123/167/812
f 16/17/813 189/279/814 192/281/815 17/18/816
f 28/39/817 194/282/818 193/283/819 22/51/820
f 195/284/821 194/282/822 28/39/823 124/168/824
f 196/285/825 195/284/826 124/168/827 107/52/828
f 22/51/829 193/283/830 196/285/831 107/52/832
f 21/43/833 109/24/834 198/286/835 197/287/836
f 20/23/837 199/288/838 198/286/839 109/24/840
f 200/289/841 199/288/842 20/23/843 38/44/844
f 21/43/845 197/287/846 200/289/847 38/44/848
f 202/290/849 201/291/850 15/16/851 23/38/852
f 55/99/853 203/292/854 202/290/855 23/38/856
f 46/63/857 204/293/858 203/292/859 55/99/860
f 15/16/861 201/291/862 204/293/863 46/63/864
f 206/294/865 205/295/866 35/58/867 39/71/868
f 71/125/869 207/296/870 206/294/871 39/71/872
f 62/98/873 208/297/874 207/296/875 71/125/876
f 35/58/877 205/295/878 208/297/879 62/98/880
f 210/298/881 209/299/882 51/81/883 56/93/884
f 211/300/885 210/298/886 56/93/887 85/123/888
f 78/124/889 212/301/890 211/300/891 85/123/892
f 51/81/893 209/299/894 212/301/895 78/124/896
f 214/302/897 213/303/898 67/105/899 72/118/900
f 215/304/901 214/302/902 72/118/903 96/145/904
f 91/122/905 216/305/906 215/304/907 96/145/908
f 213/303/909 216/305/910 91/122/911 67/105/912
